%YAML 1.1
%TAG !u! tag:unity3d.com,2011:
--- !u!1045 &1
EditorBuildSettings:
  m_ObjectHideFlags: 0
  serializedVersion: 2
  m_Scenes:
  - enabled: 1
    path: Assets/Scene/Start.unity
    guid: f714b6dd69bd69d4db609ad012a1a81f
  - enabled: 1
    path: Assets/Scene/Tutorial.unity
    guid: 53b0f65ff80dfda4a82a182546dd186d
  - enabled: 1
    path: Assets/Scene/PlayingCoop.unity
    guid: 7f3b9bb10e7374429bf00032d8da6346
  - enabled: 1
    path: Assets/Scene/result.unity
    guid: 2fbef854826e44d4b9ee11fe0361c724
